{
  "status": 0,
  "msg": "success",
  "data": {
    "list": [
      {
        "id": 21918,
        "materialSn": "05025",
        "shopId": "1",
        "name": "\u8ba2\u623f\u5361",
        "firstCategory": "533",
        "secondCategory": "0",
        "specification": "",
        "unitId": "10",
        "surplus": "0.00",
        "viceUnitId": "0",
        "viceUnitName": "根",
        "viceSurplus": "2",
        "warningSurplus": "0.00",
        "price": "0.00",
        "amount": "0.00",
        "pinyin": "dingfangka",
        "simplePinyin": "DFK",
        "isLock": "0",
        "userId": "68539",
        "status": "0",
        "updatedAt": "1462350314",
        "createdAt": "1462350314",
        "deletedAt": null,
        "sn": 1,
        "isWarning": false,
        "unitName": "\u76d2",
        "firstCategoryName": "\u56fa\u5b9a\u8d44\u4ea7",
        "secondCategoryName": "\u7a7a"
      },
      {
        "id": 21917,
        "materialSn": "04166",
        "shopId": "1",
        "name": "\u70ed\u654f\u5355\u5c42\u6253\u5370\u7eb8",
        "firstCategory": "22",
        "secondCategory": "0",
        "specification": "",
        "unitId": "26",
        "surplus": "0.00",
        "viceUnitId": "0",
        "viceSurplus": "0.00",
        "warningSurplus": "0.00",
        "price": "0.00",
        "amount": "0.00",
        "pinyin": "remindancengdayinzhi",
        "simplePinyin": "RMDCDYZ",
        "isLock": "0",
        "userId": "68539",
        "status": "0",
        "updatedAt": "1462350313",
        "createdAt": "1462350313",
        "deletedAt": null,
        "sn": 2,
        "isWarning": false,
        "unitName": "\u5377",
        "firstCategoryName": "\u529e\u516c\u7528\u54c1",
        "secondCategoryName": "\u7a7a"
      },
      {
        "id": 21916,
        "materialSn": "04086",
        "shopId": "1",
        "name": "\u8272\u5e26",
        "firstCategory": "22",
        "secondCategory": "0",
        "specification": "",
        "unitId": "343",
        "surplus": "0.00",
        "viceUnitId": "0",
        "viceSurplus": "0.00",
        "warningSurplus": "0.00",
        "price": "0.00",
        "amount": "0.00",
        "pinyin": "sedai",
        "simplePinyin": "SD",
        "isLock": "0",
        "userId": "68539",
        "status": "0",
        "updatedAt": "1462350313",
        "createdAt": "1462350313",
        "deletedAt": null,
        "sn": 3,
        "isWarning": false,
        "unitName": "\u4e2a",
        "firstCategoryName": "\u529e\u516c\u7528\u54c1",
        "secondCategoryName": "\u7a7a"
      },
      {
        "id": 21915,
        "materialSn": "04056",
        "shopId": "1",
        "name": "\u5f69\u7eb8",
        "firstCategory": "22",
        "secondCategory": "0",
        "specification": "",
        "unitId": "6",
        "surplus": "0.00",
        "viceUnitId": "0",
        "viceSurplus": "0.00",
        "warningSurplus": "0.00",
        "price": "0.00",
        "amount": "0.00",
        "pinyin": "caizhi",
        "simplePinyin": "CZ",
        "isLock": "0",
        "userId": "68539",
        "status": "0",
        "updatedAt": "1462350313",
        "createdAt": "1462350313",
        "deletedAt": null,
        "sn": 4,
        "isWarning": false,
        "unitName": "\u5305",
        "firstCategoryName": "\u529e\u516c\u7528\u54c1",
        "secondCategoryName": "\u7a7a"
      },
      {
        "id": 21914,
        "materialSn": "04010",
        "shopId": "1",
        "name": "\u80f6\u6c34",
        "firstCategory": "22",
        "secondCategory": "0",
        "specification": "",
        "unitId": "9",
        "surplus": "0.00",
        "viceUnitId": "0",
        "viceSurplus": "0.00",
        "warningSurplus": "0.00",
        "price": "0.00",
        "amount": "0.00",
        "pinyin": "jiaoshui",
        "simplePinyin": "JS",
        "isLock": "0",
        "userId": "68539",
        "status": "0",
        "updatedAt": "1462350313",
        "createdAt": "1462350313",
        "deletedAt": null,
        "sn": 5,
        "isWarning": false,
        "unitName": "\u74f6",
        "firstCategoryName": "\u529e\u516c\u7528\u54c1",
        "secondCategoryName": "\u7a7a"
      },
      {
        "id": 21913,
        "materialSn": "04004",
        "shopId": "1",
        "name": "\u8d22\u52a1\u6253\u5370\u7eb8",
        "firstCategory": "22",
        "secondCategory": "0",
        "specification": "",
        "unitId": "10",
        "surplus": "0.00",
        "viceUnitId": "0",
        "viceSurplus": "0.00",
        "warningSurplus": "0.00",
        "price": "0.00",
        "amount": "0.00",
        "pinyin": "caiwudayinzhi",
        "simplePinyin": "CWDYZ",
        "isLock": "0",
        "userId": "68539",
        "status": "0",
        "updatedAt": "1462350313",
        "createdAt": "1462350313",
        "deletedAt": null,
        "sn": 6,
        "isWarning": false,
        "unitName": "\u76d2",
        "firstCategoryName": "\u529e\u516c\u7528\u54c1",
        "secondCategoryName": "\u7a7a"
      },
      {
        "id": 21912,
        "materialSn": "04002",
        "shopId": "1",
        "name": "\u590d\u5370\u7eb8",
        "firstCategory": "22",
        "secondCategory": "0",
        "specification": "",
        "unitId": "6",
        "surplus": "0.00",
        "viceUnitId": "0",
        "viceSurplus": "0.00",
        "warningSurplus": "0.00",
        "price": "0.00",
        "amount": "0.00",
        "pinyin": "fuyinzhi",
        "simplePinyin": "FYZ",
        "isLock": "0",
        "userId": "68539",
        "status": "0",
        "updatedAt": "1462350313",
        "createdAt": "1462350313",
        "deletedAt": null,
        "sn": 7,
        "isWarning": false,
        "unitName": "\u5305",
        "firstCategoryName": "\u529e\u516c\u7528\u54c1",
        "secondCategoryName": "\u7a7a"
      },
      {
        "id": 21911,
        "materialSn": "03026",
        "shopId": "1",
        "name": "\u6d01\u5395\u7075",
        "firstCategory": "23",
        "secondCategory": "0",
        "specification": "",
        "unitId": "9",
        "surplus": "0.00",
        "viceUnitId": "0",
        "viceSurplus": "0.00",
        "warningSurplus": "0.00",
        "price": "0.00",
        "amount": "0.00",
        "pinyin": "jieceling",
        "simplePinyin": "JCL",
        "isLock": "0",
        "userId": "68539",
        "status": "0",
        "updatedAt": "1462350313",
        "createdAt": "1462350313",
        "deletedAt": null,
        "sn": 8,
        "isWarning": false,
        "unitName": "\u74f6",
        "firstCategoryName": "\u6d88\u8017\u54c1",
        "secondCategoryName": "\u7a7a"
      },
      {
        "id": 21910,
        "materialSn": "03019",
        "shopId": "1",
        "name": "\u5e72\u6ce1\u5730\u6bef\u6e05\u6d01\u5242",
        "firstCategory": "23",
        "secondCategory": "0",
        "specification": "",
        "unitId": "8",
        "surplus": "0.00",
        "viceUnitId": "0",
        "viceSurplus": "0.00",
        "warningSurplus": "0.00",
        "price": "0.00",
        "amount": "0.00",
        "pinyin": "ganpaoditanqingjieji",
        "simplePinyin": "GPDTQJJ",
        "isLock": "0",
        "userId": "68539",
        "status": "0",
        "updatedAt": "1462350313",
        "createdAt": "1462350313",
        "deletedAt": null,
        "sn": 9,
        "isWarning": false,
        "unitName": "\u6876",
        "firstCategoryName": "\u6d88\u8017\u54c1",
        "secondCategoryName": "\u7a7a"
      },
      {
        "id": 21909,
        "materialSn": "03016",
        "shopId": "1",
        "name": "\u4e00\u6b21\u6027\u6253\u706b\u673a",
        "firstCategory": "23",
        "secondCategory": "0",
        "specification": "",
        "unitId": "343",
        "surplus": "0.00",
        "viceUnitId": "0",
        "viceSurplus": "0.00",
        "warningSurplus": "0.00",
        "price": "0.00",
        "amount": "0.00",
        "pinyin": "yicixingdahuoji",
        "simplePinyin": "YCXDHJ",
        "isLock": "0",
        "userId": "68539",
        "status": "0",
        "updatedAt": "1462350313",
        "createdAt": "1462350313",
        "deletedAt": null,
        "sn": 10,
        "isWarning": false,
        "unitName": "\u4e2a",
        "firstCategoryName": "\u6d88\u8017\u54c1",
        "secondCategoryName": "\u7a7a"
      },
      {
        "id": 21908,
        "materialSn": "02012",
        "shopId": "1",
        "name": "\u63e1\u628a",
        "firstCategory": "543",
        "secondCategory": "0",
        "specification": "",
        "unitId": "343",
        "surplus": "0.00",
        "viceUnitId": "0",
        "viceSurplus": "0.00",
        "warningSurplus": "0.00",
        "price": "0.00",
        "amount": "0.00",
        "pinyin": "woba",
        "simplePinyin": "WB",
        "isLock": "0",
        "userId": "68539",
        "status": "0",
        "updatedAt": "1462350313",
        "createdAt": "1462350313",
        "deletedAt": null,
        "sn": 11,
        "isWarning": false,
        "unitName": "\u4e2a",
        "firstCategoryName": "\u4f4e\u503c\u6613\u8017",
        "secondCategoryName": "\u7a7a"
      },
      {
        "id": 21907,
        "materialSn": "02009",
        "shopId": "1",
        "name": "\u516b\u89d2\u76d8",
        "firstCategory": "543",
        "secondCategory": "0",
        "specification": "",
        "unitId": "343",
        "surplus": "0.00",
        "viceUnitId": "0",
        "viceSurplus": "0.00",
        "warningSurplus": "0.00",
        "price": "0.00",
        "amount": "0.00",
        "pinyin": "bajiaopan",
        "simplePinyin": "BJP",
        "isLock": "0",
        "userId": "68539",
        "status": "0",
        "updatedAt": "1462350313",
        "createdAt": "1462350313",
        "deletedAt": null,
        "sn": 12,
        "isWarning": false,
        "unitName": "\u4e2a",
        "firstCategoryName": "\u4f4e\u503c\u6613\u8017",
        "secondCategoryName": "\u7a7a"
      },
      {
        "id": 21906,
        "materialSn": "02007",
        "shopId": "1",
        "name": "\u9ad8\u5706\u70df\u7f38",
        "firstCategory": "543",
        "secondCategory": "0",
        "specification": "",
        "unitId": "343",
        "surplus": "0.00",
        "viceUnitId": "0",
        "viceSurplus": "0.00",
        "warningSurplus": "0.00",
        "price": "0.00",
        "amount": "0.00",
        "pinyin": "gaoyuanyangang",
        "simplePinyin": "GYYG",
        "isLock": "0",
        "userId": "68539",
        "status": "0",
        "updatedAt": "1462350313",
        "createdAt": "1462350313",
        "deletedAt": null,
        "sn": 13,
        "isWarning": false,
        "unitName": "\u4e2a",
        "firstCategoryName": "\u4f4e\u503c\u6613\u8017",
        "secondCategoryName": "\u7a7a"
      },
      {
        "id": 21905,
        "materialSn": "02005",
        "shopId": "1",
        "name": "\u68af\u5f62\u7b77\u67b6",
        "firstCategory": "543",
        "secondCategory": "0",
        "specification": "",
        "unitId": "343",
        "surplus": "0.00",
        "viceUnitId": "0",
        "viceSurplus": "0.00",
        "warningSurplus": "0.00",
        "price": "0.00",
        "amount": "0.00",
        "pinyin": "tixingkuaijia",
        "simplePinyin": "TXKJ",
        "isLock": "0",
        "userId": "68539",
        "status": "0",
        "updatedAt": "1462350313",
        "createdAt": "1462350313",
        "deletedAt": null,
        "sn": 14,
        "isWarning": false,
        "unitName": "\u4e2a",
        "firstCategoryName": "\u4f4e\u503c\u6613\u8017",
        "secondCategoryName": "\u7a7a"
      },
      {
        "id": 21904,
        "materialSn": "02004",
        "shopId": "1",
        "name": "\u5706\u89d2\u76f4\u8fb9\u57ab\u76d8",
        "firstCategory": "543",
        "secondCategory": "0",
        "specification": "",
        "unitId": "343",
        "surplus": "0.00",
        "viceUnitId": "0",
        "viceSurplus": "0.00",
        "warningSurplus": "0.00",
        "price": "0.00",
        "amount": "0.00",
        "pinyin": "yuanjiaozhibiandianpan",
        "simplePinyin": "YJZBDP",
        "isLock": "0",
        "userId": "68539",
        "status": "0",
        "updatedAt": "1462350313",
        "createdAt": "1462350313",
        "deletedAt": null,
        "sn": 15,
        "isWarning": false,
        "unitName": "\u4e2a",
        "firstCategoryName": "\u4f4e\u503c\u6613\u8017",
        "secondCategoryName": "\u7a7a"
      }
    ],
    "Total": 100,
    "currentPage": 1,
    "totalPages": 165
  }
}