{"status":0,"msg":"success","data":{"list":[{"id":644,"expenseSn":"160429JW0AE00001","userId":6,"shopId":1,"name":"","departmentId":0,"useTime":0,"type":14,"amountTotal":"0.00","version":1,"versionStatus":0,"reason":"","supplierId":0,"paymentStatus":0,"amountPaid":"0.00","preExpenseSn":"160429GMM4m00001","customTime":1461859358,"processStatus":1,"createdAt":"1461859358","updatedAt":"1461859358","deletedAt":null,"sn":1,"date":"2016-04-29","typeName":"\u76f4\u63a5\u5165\u5e93\u9000\u8d27","supplierName":"\u81ea\u91c7"},{"id":633,"expenseSn":"1604286q8l700001","userId":12,"shopId":1,"name":"","departmentId":0,"useTime":0,"type":16,"amountTotal":"0.00","version":1,"versionStatus":0,"reason":"","supplierId":12,"paymentStatus":0,"amountPaid":"0.00","preExpenseSn":"","customTime":1461857586,"processStatus":1,"createdAt":"1461857586","updatedAt":"1461857586","deletedAt":null,"sn":2,"date":"2016-04-28","typeName":"\u76f4\u63a5\u53d1\u8d77\u9000\u8d27","supplierName":"\u6d77\u6ce2\u6d4b\u8bd5\u4f9b\u5e94\u5546"},{"id":626,"expenseSn":"160428WGADC00001","userId":12,"shopId":1,"name":"","departmentId":0,"useTime":0,"type":16,"amountTotal":"0.00","version":1,"versionStatus":0,"reason":"","supplierId":12,"paymentStatus":0,"amountPaid":"0.00","preExpenseSn":"","customTime":1461857135,"processStatus":1,"createdAt":"1461857135","updatedAt":"1461857135","deletedAt":null,"sn":3,"date":"2016-04-28","typeName":"\u76f4\u63a5\u53d1\u8d77\u9000\u8d27","supplierName":"\u6d77\u6ce2\u6d4b\u8bd5\u4f9b\u5e94\u5546"},{"id":611,"expenseSn":"160428xUBqb00001","userId":12,"shopId":1,"name":"","departmentId":0,"useTime":0,"type":16,"amountTotal":"0.00","version":1,"versionStatus":0,"reason":"","supplierId":12,"paymentStatus":0,"amountPaid":"0.00","preExpenseSn":"","customTime":1461854272,"processStatus":1,"createdAt":"1461854272","updatedAt":"1461854272","deletedAt":null,"sn":4,"date":"2016-04-28","typeName":"\u76f4\u63a5\u53d1\u8d77\u9000\u8d27","supplierName":"\u6d77\u6ce2\u6d4b\u8bd5\u4f9b\u5e94\u5546"},{"id":609,"expenseSn":"160428ZudKe00001","userId":12,"shopId":1,"name":"","departmentId":0,"useTime":0,"type":16,"amountTotal":"0.00","version":1,"versionStatus":0,"reason":"","supplierId":12,"paymentStatus":0,"amountPaid":"0.00","preExpenseSn":"","customTime":1461854101,"processStatus":1,"createdAt":"1461854101","updatedAt":"1461854101","deletedAt":null,"sn":5,"date":"2016-04-28","typeName":"\u76f4\u63a5\u53d1\u8d77\u9000\u8d27","supplierName":"\u6d77\u6ce2\u6d4b\u8bd5\u4f9b\u5e94\u5546"},{"id":600,"expenseSn":"160428xoA1u00001","userId":2,"shopId":1,"name":"","departmentId":0,"useTime":0,"type":16,"amountTotal":"0.00","version":1,"versionStatus":0,"reason":"","supplierId":3,"paymentStatus":0,"amountPaid":"0.00","preExpenseSn":"","customTime":1461852966,"processStatus":1,"createdAt":"1461852966","updatedAt":"1461852966","deletedAt":null,"sn":6,"date":"2016-04-28","typeName":"\u76f4\u63a5\u53d1\u8d77\u9000\u8d27","supplierName":"\u4e54\u77f3\u6d9b"},{"id":597,"expenseSn":"160428TuQNh00001","userId":12,"shopId":1,"name":"","departmentId":0,"useTime":0,"type":16,"amountTotal":"0.00","version":1,"versionStatus":0,"reason":"","supplierId":12,"paymentStatus":0,"amountPaid":"0.00","preExpenseSn":"","customTime":1461852425,"processStatus":1,"createdAt":"1461852425","updatedAt":"1461852425","deletedAt":null,"sn":7,"date":"2016-04-28","typeName":"\u76f4\u63a5\u53d1\u8d77\u9000\u8d27","supplierName":"\u6d77\u6ce2\u6d4b\u8bd5\u4f9b\u5e94\u5546"},{"id":591,"expenseSn":"160428R64fS00001","userId":6,"shopId":1,"name":"","departmentId":0,"useTime":0,"type":16,"amountTotal":"0.00","version":1,"versionStatus":0,"reason":"","supplierId":5,"paymentStatus":0,"amountPaid":"0.00","preExpenseSn":"","customTime":1461851397,"processStatus":1,"createdAt":"1461851397","updatedAt":"1461851397","deletedAt":null,"sn":8,"date":"2016-04-28","typeName":"\u76f4\u63a5\u53d1\u8d77\u9000\u8d27","supplierName":"tt2"},{"id":590,"expenseSn":"160428KqxjC00001","userId":6,"shopId":1,"name":"","departmentId":0,"useTime":0,"type":16,"amountTotal":"0.00","version":1,"versionStatus":0,"reason":"","supplierId":1,"paymentStatus":0,"amountPaid":"0.00","preExpenseSn":"","customTime":1461851260,"processStatus":1,"createdAt":"1461851260","updatedAt":"1461851260","deletedAt":null,"sn":9,"date":"2016-04-28","typeName":"\u76f4\u63a5\u53d1\u8d77\u9000\u8d27","supplierName":"A1"},{"id":587,"expenseSn":"160428o5RkW00001","userId":6,"shopId":1,"name":"","departmentId":0,"useTime":0,"type":16,"amountTotal":"0.00","version":1,"versionStatus":0,"reason":"","supplierId":1,"paymentStatus":0,"amountPaid":"0.00","preExpenseSn":"","customTime":1461850882,"processStatus":1,"createdAt":"1461850882","updatedAt":"1461850882","deletedAt":null,"sn":10,"date":"2016-04-28","typeName":"\u76f4\u63a5\u53d1\u8d77\u9000\u8d27","supplierName":"A1"}],"count":200,"currentPage":1,"totalPages":20}}