{
    "status": 0,
    "msg": "ok",
    "data": {
        "list": [
            {
                "id": 401,
                "materialSn": "1005590",
                "shopId": "1",
                "name": "百叶",
                "firstCategory": "1",
                "secondCategory": "0",
                "specification": "1",
                "unitId": "1",
                "surplus": "101.00",
                "viceUnitId": "33",
                "viceSurplus": "-1.00",
                "warningSurplus": "0.00",
                "price": "0.00",
                "amount": "0.00",
                "pinyin": "baiye",
                "simplePinyin": "BY",
                "isLock": "0",
                "userId": "3",
                "status": "0",
                "updatedAt": "1461938247",
                "createdAt": "2016/04/26",
                "deletedAt": null,
                "sn": 1,
                "secondCategoryName": "",
                "firstCategoryName": "鲜肉类",
                "viceUnitName": "锅",
                "unitName": "斤",
                "createdAtUserName": "罗心伟",
                "label": "百叶",
                "total": "101.00"
            },
            {
                "id": 8433,
                "materialSn": "10055901",
                "shopId": "1",
                "name": "羊肚",
                "firstCategory": "1",
                "secondCategory": "0",
                "specification": "1",
                "unitId": "1",
                "surplus": "0.00",
                "viceUnitId": "0",
                "viceSurplus": "0.00",
                "warningSurplus": "0.00",
                "price": "0.21",
                "amount": "0.00",
                "pinyin": "yangdu",
                "simplePinyin": "YD",
                "isLock": "0",
                "userId": "3",
                "status": "0",
                "updatedAt": "1461930733",
                "createdAt": "2016/04/29",
                "deletedAt": null,
                "sn": 2,
                "secondCategoryName": "",
                "firstCategoryName": "鲜肉类",
                "viceUnitName": "",
                "unitName": "斤",
                "createdAtUserName": "罗心伟",
                "label": "羊肚",
                "total": "0.00"
            },
            {
                "id": 402,
                "materialSn": "1005591",
                "shopId": "1",
                "name": "毛肚",
                "firstCategory": "1",
                "secondCategory": "0",
                "specification": "1",
                "unitId": "1",
                "surplus": "0.00",
                "viceUnitId": "0",
                "viceSurplus": "0.00",
                "warningSurplus": "0.00",
                "price": "0.00",
                "amount": "0.00",
                "pinyin": "maodu",
                "simplePinyin": "MD",
                "isLock": "0",
                "userId": "3",
                "status": "0",
                "updatedAt": "1461930739",
                "createdAt": "2016/04/26",
                "deletedAt": null,
                "sn": 3,
                "secondCategoryName": "",
                "firstCategoryName": "鲜肉类",
                "viceUnitName": "",
                "unitName": "斤",
                "createdAtUserName": "罗心伟",
                "label": "毛肚",
                "total": "0.00"
            },
            {
                "id": 403,
                "materialSn": "1005592",
                "shopId": "1",
                "name": "牛腩",
                "firstCategory": "1",
                "secondCategory": "0",
                "specification": "1",
                "unitId": "1",
                "surplus": "0.00",
                "viceUnitId": "0",
                "viceSurplus": "0.00",
                "warningSurplus": "0.00",
                "price": "0.00",
                "amount": "0.00",
                "pinyin": "niunan",
                "simplePinyin": "NN",
                "isLock": "0",
                "userId": "3",
                "status": "0",
                "updatedAt": "1461930743",
                "createdAt": "2016/04/26",
                "deletedAt": null,
                "sn": 4,
                "secondCategoryName": "",
                "firstCategoryName": "鲜肉类",
                "viceUnitName": "",
                "unitName": "斤",
                "createdAtUserName": "罗心伟",
                "label": "牛腩",
                "total": "0.00"
            },
            {
                "id": 404,
                "materialSn": "1005593",
                "shopId": "1",
                "name": "鸡软骨",
                "firstCategory": "1",
                "secondCategory": "0",
                "specification": "1",
                "unitId": "1",
                "surplus": "0.00",
                "viceUnitId": "10",
                "viceSurplus": "0.00",
                "warningSurplus": "0.00",
                "price": "0.00",
                "amount": "0.00",
                "pinyin": "jiruangu",
                "simplePinyin": "JRG",
                "isLock": "0",
                "userId": "3",
                "status": "0",
                "updatedAt": "1461930748",
                "createdAt": "2016/04/26",
                "deletedAt": null,
                "sn": 5,
                "secondCategoryName": "",
                "firstCategoryName": "鲜肉类",
                "viceUnitName": "件",
                "unitName": "斤",
                "createdAtUserName": "罗心伟",
                "label": "鸡软骨",
                "total": "0.00"
            },
            {
                "id": 377,
                "materialSn": "1005610",
                "shopId": "1",
                "name": "三黄鸡",
                "firstCategory": "1",
                "secondCategory": "0",
                "specification": "1",
                "unitId": "1",
                "surplus": "-1.00",
                "viceUnitId": "3",
                "viceSurplus": "0.00",
                "warningSurplus": "0.00",
                "price": "0.00",
                "amount": "0.00",
                "pinyin": "sanhuangji",
                "simplePinyin": "SHJ",
                "isLock": "0",
                "userId": "3",
                "status": "0",
                "updatedAt": "1461930471",
                "createdAt": "2016/04/26",
                "deletedAt": null,
                "sn": 6,
                "secondCategoryName": "",
                "firstCategoryName": "鲜肉类",
                "viceUnitName": "只",
                "unitName": "斤",
                "createdAtUserName": "罗心伟",
                "label": "三黄鸡",
                "total": "-1.00"
            },
            {
                "id": 379,
                "materialSn": "1005612",
                "shopId": "1",
                "name": "猪腰",
                "firstCategory": "1",
                "secondCategory": "0",
                "specification": "",
                "unitId": "1",
                "surplus": "0.00",
                "viceUnitId": "0",
                "viceSurplus": "0.00",
                "warningSurplus": "0.00",
                "price": "0.00",
                "amount": "0.00",
                "pinyin": "zhuyao",
                "simplePinyin": "ZY",
                "isLock": "0",
                "userId": "4",
                "status": "0",
                "updatedAt": "1461673679",
                "createdAt": "2016/04/26",
                "deletedAt": null,
                "sn": 7,
                "secondCategoryName": "",
                "firstCategoryName": "鲜肉类",
                "viceUnitName": "",
                "unitName": "斤",
                "createdAtUserName": "树春",
                "label": "猪腰",
                "total": "0.00"
            },
            {
                "id": 382,
                "materialSn": "1005615",
                "shopId": "1",
                "name": "黄玉参",
                "firstCategory": "1",
                "secondCategory": "0",
                "specification": "",
                "unitId": "1",
                "surplus": "29.00",
                "viceUnitId": "2",
                "viceSurplus": "-1.00",
                "warningSurplus": "0.00",
                "price": "0.00",
                "amount": "0.00",
                "pinyin": "huangyucan",
                "simplePinyin": "HYC",
                "isLock": "0",
                "userId": "4",
                "status": "0",
                "updatedAt": "1461928906",
                "createdAt": "2016/04/26",
                "deletedAt": null,
                "sn": 8,
                "secondCategoryName": "",
                "firstCategoryName": "鲜肉类",
                "viceUnitName": "条",
                "unitName": "斤",
                "createdAtUserName": "树春",
                "label": "黄玉参",
                "total": "29.00"
            },
            {
                "id": 393,
                "materialSn": "1005626",
                "shopId": "1",
                "name": "羊肚",
                "firstCategory": "1",
                "secondCategory": "0",
                "specification": "",
                "unitId": "1",
                "surplus": "0.00",
                "viceUnitId": "0",
                "viceSurplus": "0.00",
                "warningSurplus": "0.00",
                "price": "0.00",
                "amount": "0.00",
                "pinyin": "yangdu",
                "simplePinyin": "YD",
                "isLock": "0",
                "userId": "4",
                "status": "0",
                "updatedAt": "1461842103",
                "createdAt": "2016/04/26",
                "deletedAt": null,
                "sn": 9,
                "secondCategoryName": "",
                "firstCategoryName": "鲜肉类",
                "viceUnitName": "",
                "unitName": "斤",
                "createdAtUserName": "树春",
                "label": "羊肚",
                "total": "0.00"
            },
            {
                "id": 370,
                "materialSn": "1005634",
                "shopId": "1",
                "name": "净鱼头",
                "firstCategory": "1",
                "secondCategory": "0",
                "specification": "",
                "unitId": "1",
                "surplus": "4.00",
                "viceUnitId": "4",
                "viceSurplus": "99.00",
                "warningSurplus": "0.00",
                "price": "0.00",
                "amount": "0.00",
                "pinyin": "jingyutou",
                "simplePinyin": "JYT",
                "isLock": "0",
                "userId": "4",
                "status": "0",
                "updatedAt": "1461848472",
                "createdAt": "2016/04/26",
                "deletedAt": null,
                "sn": 10,
                "secondCategoryName": "",
                "firstCategoryName": "鲜肉类",
                "viceUnitName": "个",
                "unitName": "斤",
                "createdAtUserName": "树春",
                "label": "净鱼头",
                "total": "4.00"
            },
            {
                "id": 367,
                "materialSn": "1005646",
                "shopId": "1",
                "name": "猪棒骨",
                "firstCategory": "1",
                "secondCategory": "0",
                "specification": "",
                "unitId": "1",
                "surplus": "0.00",
                "viceUnitId": "0",
                "viceSurplus": "0.00",
                "warningSurplus": "0.00",
                "price": "0.00",
                "amount": "0.00",
                "pinyin": "zhubanggu",
                "simplePinyin": "ZBG",
                "isLock": "0",
                "userId": "4",
                "status": "0",
                "updatedAt": "1461673679",
                "createdAt": "2016/04/26",
                "deletedAt": null,
                "sn": 11,
                "secondCategoryName": "",
                "firstCategoryName": "鲜肉类",
                "viceUnitName": "",
                "unitName": "斤",
                "createdAtUserName": "树春",
                "label": "猪棒骨",
                "total": "0.00"
            },
            {
                "id": 354,
                "materialSn": "1005654",
                "shopId": "1",
                "name": "仔鹅",
                "firstCategory": "1",
                "secondCategory": "0",
                "specification": "",
                "unitId": "1",
                "surplus": "0.00",
                "viceUnitId": "3",
                "viceSurplus": "0.00",
                "warningSurplus": "0.00",
                "price": "0.00",
                "amount": "0.00",
                "pinyin": "zie",
                "simplePinyin": "ZE",
                "isLock": "0",
                "userId": "4",
                "status": "0",
                "updatedAt": "1461673679",
                "createdAt": "2016/04/26",
                "deletedAt": null,
                "sn": 12,
                "secondCategoryName": "",
                "firstCategoryName": "鲜肉类",
                "viceUnitName": "只",
                "unitName": "斤",
                "createdAtUserName": "树春",
                "label": "仔鹅",
                "total": "0.00"
            },
            {
                "id": 345,
                "materialSn": "1005661",
                "shopId": "1",
                "name": "猪肚",
                "firstCategory": "1",
                "secondCategory": "0",
                "specification": "",
                "unitId": "1",
                "surplus": "0.00",
                "viceUnitId": "0",
                "viceSurplus": "0.00",
                "warningSurplus": "0.00",
                "price": "0.00",
                "amount": "0.00",
                "pinyin": "zhudu",
                "simplePinyin": "ZD",
                "isLock": "0",
                "userId": "4",
                "status": "0",
                "updatedAt": "1461852966",
                "createdAt": "2016/04/26",
                "deletedAt": null,
                "sn": 13,
                "secondCategoryName": "",
                "firstCategoryName": "鲜肉类",
                "viceUnitName": "",
                "unitName": "斤",
                "createdAtUserName": "树春",
                "label": "猪肚",
                "total": "0.00"
            },
            {
                "id": 340,
                "materialSn": "1005670",
                "shopId": "1",
                "name": "海白虾",
                "firstCategory": "1",
                "secondCategory": "0",
                "specification": "",
                "unitId": "1",
                "surplus": "-6.00",
                "viceUnitId": "0",
                "viceSurplus": "0.00",
                "warningSurplus": "0.00",
                "price": "0.00",
                "amount": "0.00",
                "pinyin": "haibaixia",
                "simplePinyin": "HBX",
                "isLock": "0",
                "userId": "4",
                "status": "0",
                "updatedAt": "1461853356",
                "createdAt": "2016/04/26",
                "deletedAt": null,
                "sn": 14,
                "secondCategoryName": "",
                "firstCategoryName": "鲜肉类",
                "viceUnitName": "",
                "unitName": "斤",
                "createdAtUserName": "树春",
                "label": "海白虾",
                "total": "-6.00"
            },
            {
                "id": 330,
                "materialSn": "1005714",
                "shopId": "1",
                "name": "羊棒骨",
                "firstCategory": "1",
                "secondCategory": "0",
                "specification": "",
                "unitId": "1",
                "surplus": "0.00",
                "viceUnitId": "0",
                "viceSurplus": "0.00",
                "warningSurplus": "0.00",
                "price": "0.00",
                "amount": "0.00",
                "pinyin": "yangbanggu",
                "simplePinyin": "YBG",
                "isLock": "0",
                "userId": "4",
                "status": "0",
                "updatedAt": "1461673679",
                "createdAt": "2016/04/26",
                "deletedAt": null,
                "sn": 15,
                "secondCategoryName": "",
                "firstCategoryName": "鲜肉类",
                "viceUnitName": "",
                "unitName": "斤",
                "createdAtUserName": "树春",
                "label": "羊棒骨",
                "total": "0.00"
            },
            {
                "id": 310,
                "materialSn": "1005780",
                "shopId": "1",
                "name": "东山羊",
                "firstCategory": "1",
                "secondCategory": "0",
                "specification": "",
                "unitId": "1",
                "surplus": "-1.00",
                "viceUnitId": "3",
                "viceSurplus": "0.00",
                "warningSurplus": "0.00",
                "price": "0.00",
                "amount": "0.00",
                "pinyin": "dongshanyang",
                "simplePinyin": "DSY",
                "isLock": "0",
                "userId": "4",
                "status": "0",
                "updatedAt": "1461854384",
                "createdAt": "2016/04/26",
                "deletedAt": null,
                "sn": 16,
                "secondCategoryName": "",
                "firstCategoryName": "鲜肉类",
                "viceUnitName": "只",
                "unitName": "斤",
                "createdAtUserName": "树春",
                "label": "东山羊",
                "total": "-1.00"
            },
            {
                "id": 311,
                "materialSn": "1005781",
                "shopId": "1",
                "name": "牛蛙",
                "firstCategory": "1",
                "secondCategory": "0",
                "specification": "",
                "unitId": "1",
                "surplus": "0.00",
                "viceUnitId": "3",
                "viceSurplus": "0.00",
                "warningSurplus": "0.00",
                "price": "0.00",
                "amount": "0.00",
                "pinyin": "niuwa",
                "simplePinyin": "NW",
                "isLock": "0",
                "userId": "4",
                "status": "0",
                "updatedAt": "1461673679",
                "createdAt": "2016/04/26",
                "deletedAt": null,
                "sn": 17,
                "secondCategoryName": "",
                "firstCategoryName": "鲜肉类",
                "viceUnitName": "只",
                "unitName": "斤",
                "createdAtUserName": "树春",
                "label": "牛蛙",
                "total": "0.00"
            },
            {
                "id": 312,
                "materialSn": "1005782",
                "shopId": "1",
                "name": "鸡胸肉",
                "firstCategory": "1",
                "secondCategory": "0",
                "specification": "",
                "unitId": "1",
                "surplus": "0.00",
                "viceUnitId": "0",
                "viceSurplus": "0.00",
                "warningSurplus": "0.00",
                "price": "0.00",
                "amount": "0.00",
                "pinyin": "jixiongrou",
                "simplePinyin": "JXR",
                "isLock": "0",
                "userId": "4",
                "status": "0",
                "updatedAt": "1461673679",
                "createdAt": "2016/04/26",
                "deletedAt": null,
                "sn": 18,
                "secondCategoryName": "",
                "firstCategoryName": "鲜肉类",
                "viceUnitName": "",
                "unitName": "斤",
                "createdAtUserName": "树春",
                "label": "鸡胸肉",
                "total": "0.00"
            },
            {
                "id": 324,
                "materialSn": "1005794",
                "shopId": "1",
                "name": "牛小排",
                "firstCategory": "1",
                "secondCategory": "0",
                "specification": "",
                "unitId": "1",
                "surplus": "12.00",
                "viceUnitId": "11",
                "viceSurplus": "5.00",
                "warningSurplus": "0.00",
                "price": "0.00",
                "amount": "0.00",
                "pinyin": "niuxiaopai",
                "simplePinyin": "NXP",
                "isLock": "0",
                "userId": "4",
                "status": "0",
                "updatedAt": "1461832636",
                "createdAt": "2016/04/26",
                "deletedAt": null,
                "sn": 19,
                "secondCategoryName": "",
                "firstCategoryName": "鲜肉类",
                "viceUnitName": "块",
                "unitName": "斤",
                "createdAtUserName": "树春",
                "label": "牛小排",
                "total": "12.00"
            },
            {
                "id": 1,
                "materialSn": "1006083",
                "shopId": "1",
                "name": "文哈",
                "firstCategory": "1",
                "secondCategory": "0",
                "specification": "",
                "unitId": "1",
                "surplus": "100.00",
                "viceUnitId": "0",
                "viceSurplus": "0.00",
                "warningSurplus": "0.00",
                "price": "0.00",
                "amount": "0.00",
                "pinyin": "wenha",
                "simplePinyin": "WH",
                "isLock": "0",
                "userId": "4",
                "status": "0",
                "updatedAt": "1461853960",
                "createdAt": "2016/04/26",
                "deletedAt": null,
                "sn": 20,
                "secondCategoryName": "",
                "firstCategoryName": "鲜肉类",
                "viceUnitName": "",
                "unitName": "斤",
                "createdAtUserName": "树春",
                "label": "文哈",
                "total": "100.00"
            }
        ],
        "totalPages": 118,
        "currentPage": 1,
        "count": 2345
    }
}