{
    "status": 0,
    "msg": "success",
    "data": {
        "list": [
            {
                "id": 561,
                "expenseSn": "160428Lj28q00001",
                "expenseId": "559",
                "materialId": "8",
                "materialName": "澳龙",
                "materialPrice": "0.00",
                "materialCount": "11.00",
                "materialRealCount": "11.00",
                "materialUnitName": "斤",
                "supplierId": "0",
                "shopId": "1",
                "departmentId": "0",
                "type": "12",
                "firstCategory": "2",
                "secondCategory": "0",
                "comment": "",
                "materialViceCount": "1.00",
                "materialViceRealCount": "1.00",
                "materialViceUnitName": "只",
                "refundNum": "0.00",
                "userId": "12",
                "status": "1",
                "specification": "",
                "invoiceId": "86",
                "whetherSettlement": "1",
                "costPrice": "1.32",
                "subtotal": "0.00",
                "customTime": "1461845879",
                "updatedAt": "1462362991",
                "createdAt": "1461845879",
                "deletedAt": null,
                "firstCategoryName": "海鲜类",
                "secondCategoryName": "",
                "supplierName": "自采",
                "sn": 1,
                "realNumber": "11.00",
                "pCount": 0,
                "expenseSnTypeValue": "零成本入库",
                "departmentName": ""
            },
            {
                "id": 1718,
                "expenseSn": "160503jCcmO00001",
                "expenseId": "1555",
                "materialId": "86",
                "materialName": "员工-海白虾",
                "materialPrice": "0.00",
                "materialCount": "1.00",
                "materialRealCount": "2.00",
                "materialUnitName": "斤",
                "supplierId": "0",
                "shopId": "1",
                "departmentId": "0",
                "type": "12",
                "firstCategory": "3",
                "secondCategory": "0",
                "comment": "",
                "materialViceCount": "1.00",
                "materialViceRealCount": "1.00",
                "materialViceUnitName": "斤/只",
                "refundNum": "0.00",
                "userId": "1",
                "status": "1",
                "specification": "",
                "invoiceId": "99",
                "whetherSettlement": "1",
                "costPrice": "0.00",
                "subtotal": "0.00",
                "customTime": "1462260682",
                "updatedAt": "1462362991",
                "createdAt": "1462260682",
                "deletedAt": null,
                "firstCategoryName": "员工食堂",
                "secondCategoryName": "",
                "supplierName": "自采",
                "sn": 2,
                "realNumber": "2.00",
                "pCount": 0,
                "expenseSnTypeValue": "零成本入库",
                "departmentName": ""
            },
            {
                "id": 405,
                "expenseSn": "160428Mm5on00001",
                "expenseId": "419",
                "materialId": "324",
                "materialName": "牛小排",
                "materialPrice": "999.00",
                "materialCount": "12.00",
                "materialRealCount": "12.00",
                "materialUnitName": "斤",
                "supplierId": "0",
                "shopId": "1",
                "departmentId": "0",
                "type": "12",
                "firstCategory": "1",
                "secondCategory": "0",
                "comment": "",
                "materialViceCount": "5.00",
                "materialViceRealCount": "5.00",
                "materialViceUnitName": "块",
                "refundNum": "0.00",
                "userId": "6",
                "status": "1",
                "specification": "",
                "invoiceId": "64",
                "whetherSettlement": "1",
                "costPrice": "750.00",
                "subtotal": "11988.00",
                "customTime": "1461832636",
                "updatedAt": "1462362991",
                "createdAt": "1461832636",
                "deletedAt": null,
                "firstCategoryName": "鲜肉类",
                "secondCategoryName": "",
                "supplierName": "自采",
                "sn": 3,
                "realNumber": "12.00",
                "pCount": 11988,
                "expenseSnTypeValue": "零成本入库",
                "departmentName": ""
            },
            {
                "id": 563,
                "expenseSn": "160428Lj28q00001",
                "expenseId": "559",
                "materialId": "382",
                "materialName": "黄玉参",
                "materialPrice": "0.00",
                "materialCount": "33.00",
                "materialRealCount": "33.00",
                "materialUnitName": "斤",
                "supplierId": "0",
                "shopId": "1",
                "departmentId": "0",
                "type": "12",
                "firstCategory": "1",
                "secondCategory": "0",
                "comment": "",
                "materialViceCount": "3.00",
                "materialViceRealCount": "3.00",
                "materialViceUnitName": "条",
                "refundNum": "0.00",
                "userId": "12",
                "status": "1",
                "specification": "",
                "invoiceId": "86",
                "whetherSettlement": "1",
                "costPrice": "0.00",
                "subtotal": "0.00",
                "customTime": "1461845879",
                "updatedAt": "1462362991",
                "createdAt": "1461845879",
                "deletedAt": null,
                "firstCategoryName": "鲜肉类",
                "secondCategoryName": "",
                "supplierName": "自采",
                "sn": 4,
                "realNumber": "33.00",
                "pCount": 0,
                "expenseSnTypeValue": "零成本入库",
                "departmentName": ""
            },
            {
                "id": 562,
                "expenseSn": "160428Lj28q00001",
                "expenseId": "559",
                "materialId": "401",
                "materialName": "百叶",
                "materialPrice": "0.00",
                "materialCount": "22.00",
                "materialRealCount": "22.00",
                "materialUnitName": "斤",
                "supplierId": "0",
                "shopId": "1",
                "departmentId": "0",
                "type": "12",
                "firstCategory": "1",
                "secondCategory": "0",
                "comment": "",
                "materialViceCount": "2.00",
                "materialViceRealCount": "2.00",
                "materialViceUnitName": "锅",
                "refundNum": "0.00",
                "userId": "12",
                "status": "1",
                "specification": "",
                "invoiceId": "86",
                "whetherSettlement": "1",
                "costPrice": "0.07",
                "subtotal": "0.00",
                "customTime": "1461845879",
                "updatedAt": "1462362991",
                "createdAt": "1461845879",
                "deletedAt": null,
                "firstCategoryName": "鲜肉类",
                "secondCategoryName": "",
                "supplierName": "自采",
                "sn": 5,
                "realNumber": "22.00",
                "pCount": 0,
                "expenseSnTypeValue": "零成本入库",
                "departmentName": ""
            },
            {
                "id": 407,
                "expenseSn": "160428Mm5on00001",
                "expenseId": "419",
                "materialId": "1336",
                "materialName": "USB分线器",
                "materialPrice": "0.00",
                "materialCount": "12.00",
                "materialRealCount": "12.00",
                "materialUnitName": "个",
                "supplierId": "0",
                "shopId": "1",
                "departmentId": "0",
                "type": "12",
                "firstCategory": "24",
                "secondCategory": "0",
                "comment": "",
                "materialViceCount": "0.00",
                "materialViceRealCount": "0.00",
                "materialViceUnitName": "",
                "refundNum": "0.00",
                "userId": "6",
                "status": "1",
                "specification": "",
                "invoiceId": "64",
                "whetherSettlement": "1",
                "costPrice": "0.00",
                "subtotal": "0.00",
                "customTime": "1461832636",
                "updatedAt": "1462362991",
                "createdAt": "1461832636",
                "deletedAt": null,
                "firstCategoryName": "低值易耗品",
                "secondCategoryName": "",
                "supplierName": "自采",
                "sn": 6,
                "realNumber": "12.00",
                "pCount": 0,
                "expenseSnTypeValue": "零成本入库",
                "departmentName": ""
            },
            {
                "id": 406,
                "expenseSn": "160428Mm5on00001",
                "expenseId": "419",
                "materialId": "1665",
                "materialName": "莲藕",
                "materialPrice": "0.00",
                "materialCount": "12.00",
                "materialRealCount": "12.00",
                "materialUnitName": "斤",
                "supplierId": "0",
                "shopId": "1",
                "departmentId": "0",
                "type": "12",
                "firstCategory": "25",
                "secondCategory": "32",
                "comment": "",
                "materialViceCount": "0.00",
                "materialViceRealCount": "0.00",
                "materialViceUnitName": "",
                "refundNum": "0.00",
                "userId": "6",
                "status": "1",
                "specification": "",
                "invoiceId": "64",
                "whetherSettlement": "1",
                "costPrice": "3.53",
                "subtotal": "0.00",
                "customTime": "1461832636",
                "updatedAt": "1462362991",
                "createdAt": "1461832636",
                "deletedAt": null,
                "firstCategoryName": "蔬菜类",
                "secondCategoryName": "测试7",
                "supplierName": "自采",
                "sn": 7,
                "realNumber": "12.00",
                "pCount": 0,
                "expenseSnTypeValue": "零成本入库",
                "departmentName": ""
            },
            {
                "id": 458,
                "expenseSn": "160428m4eBh00001",
                "expenseId": "470",
                "materialId": "5155",
                "materialName": "安琪酵母",
                "materialPrice": "0.00",
                "materialCount": "1.00",
                "materialRealCount": "1.00",
                "materialUnitName": "袋",
                "supplierId": "0",
                "shopId": "1",
                "departmentId": "0",
                "type": "12",
                "firstCategory": "117",
                "secondCategory": "0",
                "comment": "",
                "materialViceCount": "0.00",
                "materialViceRealCount": "0.00",
                "materialViceUnitName": "",
                "refundNum": "0.00",
                "userId": "5",
                "status": "1",
                "specification": "500g",
                "invoiceId": "0",
                "whetherSettlement": "1",
                "costPrice": "0.00",
                "subtotal": "0.00",
                "customTime": "1461838160",
                "updatedAt": "1462362991",
                "createdAt": "1461838160",
                "deletedAt": null,
                "firstCategoryName": "调料类",
                "secondCategoryName": "",
                "supplierName": "自采",
                "sn": 8,
                "realNumber": "1.00",
                "pCount": 0,
                "expenseSnTypeValue": "零成本入库",
                "departmentName": ""
            },
            {
                "id": 338,
                "expenseSn": "160428s767m00001",
                "expenseId": "301",
                "materialId": "5185",
                "materialName": "海天排骨酱",
                "materialPrice": "0.00",
                "materialCount": "3.00",
                "materialRealCount": "3.00",
                "materialUnitName": "瓶",
                "supplierId": "0",
                "shopId": "1",
                "departmentId": "0",
                "type": "12",
                "firstCategory": "117",
                "secondCategory": "0",
                "comment": "",
                "materialViceCount": "0.00",
                "materialViceRealCount": "0.00",
                "materialViceUnitName": "",
                "refundNum": "0.00",
                "userId": "6",
                "status": "1",
                "specification": "260g*15",
                "invoiceId": "0",
                "whetherSettlement": "1",
                "costPrice": "0.00",
                "subtotal": "0.00",
                "customTime": "1461813753",
                "updatedAt": "1462362991",
                "createdAt": "1461813753",
                "deletedAt": null,
                "firstCategoryName": "调料类",
                "secondCategoryName": "",
                "supplierName": "自采",
                "sn": 9,
                "realNumber": "3.00",
                "pCount": 0,
                "expenseSnTypeValue": "零成本入库",
                "departmentName": ""
            },
            {
                "id": 777,
                "expenseSn": "160429oPcY700001",
                "expenseId": "681",
                "materialId": "5264",
                "materialName": "年糕",
                "materialPrice": "0.00",
                "materialCount": "10.00",
                "materialRealCount": "10.00",
                "materialUnitName": "斤",
                "supplierId": "0",
                "shopId": "1",
                "departmentId": "0",
                "type": "12",
                "firstCategory": "25",
                "secondCategory": "0",
                "comment": "",
                "materialViceCount": "0.00",
                "materialViceRealCount": "0.00",
                "materialViceUnitName": "",
                "refundNum": "0.00",
                "userId": "1",
                "status": "1",
                "specification": "1斤/包",
                "invoiceId": "88",
                "whetherSettlement": "1",
                "costPrice": "0.00",
                "subtotal": "0.00",
                "customTime": "1461917565",
                "updatedAt": "1462362991",
                "createdAt": "1461917565",
                "deletedAt": null,
                "firstCategoryName": "蔬菜类",
                "secondCategoryName": "",
                "supplierName": "自采",
                "sn": 10,
                "realNumber": "10.00",
                "pCount": 0,
                "expenseSnTypeValue": "零成本入库",
                "departmentName": ""
            },
            {
                "id": 331,
                "expenseSn": "160428Y4ZyU00001",
                "expenseId": "270",
                "materialId": "5289",
                "materialName": "阿根廷红虾",
                "materialPrice": "0.00",
                "materialCount": "0.00",
                "materialRealCount": "-12.00",
                "materialUnitName": "盒",
                "supplierId": "0",
                "shopId": "1",
                "departmentId": "0",
                "type": "12",
                "firstCategory": "6",
                "secondCategory": "0",
                "comment": "",
                "materialViceCount": "0.00",
                "materialViceRealCount": "0.00",
                "materialViceUnitName": "",
                "refundNum": "0.00",
                "userId": "12",
                "status": "1",
                "specification": "2kg/盒",
                "invoiceId": "0",
                "whetherSettlement": "1",
                "costPrice": "0.00",
                "subtotal": "0.00",
                "customTime": "1461811642",
                "updatedAt": "1462362991",
                "createdAt": "1461811642",
                "deletedAt": null,
                "firstCategoryName": "冻品类",
                "secondCategoryName": "",
                "supplierName": "自采",
                "sn": 11,
                "realNumber": "-12.00",
                "pCount": 0,
                "expenseSnTypeValue": "零成本入库",
                "departmentName": ""
            },
            {
                "id": 320,
                "expenseSn": "1604287NIvT00001",
                "expenseId": "256",
                "materialId": "5385",
                "materialName": "火锅料",
                "materialPrice": "20.00",
                "materialCount": "25.00",
                "materialRealCount": "25.00",
                "materialUnitName": "斤",
                "supplierId": "0",
                "shopId": "1",
                "departmentId": "0",
                "type": "13",
                "firstCategory": "121",
                "secondCategory": "0",
                "comment": "",
                "materialViceCount": "0.00",
                "materialViceRealCount": "0.00",
                "materialViceUnitName": "",
                "refundNum": "0.00",
                "userId": "6",
                "status": "1",
                "specification": "",
                "invoiceId": "0",
                "whetherSettlement": "1",
                "costPrice": "16.03",
                "subtotal": "500.00",
                "customTime": "1461810291",
                "updatedAt": "1462362991",
                "createdAt": "1461810291",
                "deletedAt": null,
                "firstCategoryName": "半成品调料",
                "secondCategoryName": "",
                "supplierName": "自采",
                "sn": 12,
                "realNumber": "25.00",
                "pCount": 500,
                "expenseSnTypeValue": "直接入库",
                "departmentName": ""
            },
            {
                "id": 285,
                "expenseSn": "160427qyCot00001",
                "expenseId": "225",
                "materialId": "5394",
                "materialName": "杂菌",
                "materialPrice": "10.00",
                "materialCount": "10.00",
                "materialRealCount": "10.00",
                "materialUnitName": "斤",
                "supplierId": "0",
                "shopId": "1",
                "departmentId": "0",
                "type": "12",
                "firstCategory": "121",
                "secondCategory": "0",
                "comment": "",
                "materialViceCount": "11.00",
                "materialViceRealCount": "11.00",
                "materialViceUnitName": "条",
                "refundNum": "0.00",
                "userId": "1",
                "status": "1",
                "specification": "111",
                "invoiceId": "75",
                "whetherSettlement": "1",
                "costPrice": "10.00",
                "subtotal": "100.00",
                "customTime": "1461758122",
                "updatedAt": "1462362991",
                "createdAt": "1461758122",
                "deletedAt": null,
                "firstCategoryName": "半成品调料",
                "secondCategoryName": "",
                "supplierName": "自采",
                "sn": 13,
                "realNumber": "10.00",
                "pCount": 100,
                "expenseSnTypeValue": "零成本入库",
                "departmentName": ""
            },
            {
                "id": 350,
                "expenseSn": "160428fwikq00001",
                "expenseId": "327",
                "materialId": "8395",
                "materialName": "海波测试",
                "materialPrice": "0.00",
                "materialCount": "12.00",
                "materialRealCount": "12.00",
                "materialUnitName": "斤",
                "supplierId": "0",
                "shopId": "1",
                "departmentId": "0",
                "type": "12",
                "firstCategory": "24",
                "secondCategory": "59",
                "comment": "",
                "materialViceCount": "0.00",
                "materialViceRealCount": "0.00",
                "materialViceUnitName": "只",
                "refundNum": "0.00",
                "userId": "12",
                "status": "1",
                "specification": "600ml",
                "invoiceId": "0",
                "whetherSettlement": "1",
                "costPrice": "2763.36",
                "subtotal": "0.00",
                "customTime": "1461815281",
                "updatedAt": "1462362991",
                "createdAt": "1461815281",
                "deletedAt": null,
                "firstCategoryName": "低值易耗品",
                "secondCategoryName": "罐子3",
                "supplierName": "自采",
                "sn": 14,
                "realNumber": "12.00",
                "pCount": 0,
                "expenseSnTypeValue": "零成本入库",
                "departmentName": ""
            },
            {
                "id": 362,
                "expenseSn": "160428uCc9600001",
                "expenseId": "350",
                "materialId": "8422",
                "materialName": "海波退货测试",
                "materialPrice": "0.00",
                "materialCount": "12.00",
                "materialRealCount": "12.00",
                "materialUnitName": "斤",
                "supplierId": "0",
                "shopId": "1",
                "departmentId": "0",
                "type": "12",
                "firstCategory": "2",
                "secondCategory": "0",
                "comment": "",
                "materialViceCount": "0.00",
                "materialViceRealCount": "0.00",
                "materialViceUnitName": "条",
                "refundNum": "0.00",
                "userId": "12",
                "status": "1",
                "specification": "",
                "invoiceId": "0",
                "whetherSettlement": "1",
                "costPrice": "7.52",
                "subtotal": "0.00",
                "customTime": "1461816336",
                "updatedAt": "1462362991",
                "createdAt": "1461816336",
                "deletedAt": null,
                "firstCategoryName": "海鲜类",
                "secondCategoryName": "",
                "supplierName": "自采",
                "sn": 15,
                "realNumber": "12.00",
                "pCount": 0,
                "expenseSnTypeValue": "零成本入库",
                "departmentName": ""
            }
        ],
        "count": "61",
        "currentPage": 1,
        "totalPages": 5
    }
}