{
    "status": 0,
    "msg": "success",
    "data": {
        "list": [
            {
                "id": 1590,
                "expenseSn": "160503S6X7500001",
                "expenseId": "1502",
                "materialId": "2",
                "materialName": "牛腱子",
                "materialPrice": "10.00",
                "materialCount": "1.00",
                "materialRealCount": "1.00",
                "materialUnitName": "斤",
                "supplierId": "0",
                "shopId": "1",
                "departmentId": "4",
                "type": "9",
                "firstCategory": "1",
                "secondCategory": "0",
                "comment": "",
                "materialViceCount": "0.00",
                "materialViceRealCount": "0.00",
                "materialViceUnitName": "",
                "refundNum": "0.00",
                "userId": "17",
                "status": "1",
                "specification": "",
                "invoiceId": "97",
                "whetherSettlement": "0",
                "costPrice": "3.00",
                "subtotal": "0.00",
                "customTime": "1462248456",
                "updatedAt": "1462353252",
                "createdAt": "1462247909",
                "deletedAt": null,
                "firstCategoryName": "鲜肉类",
                "secondCategoryName": "",
                "supplierName": "自采",
                "sn": 1,
                "realNumber": "1.00",
                "pCount": 10,
                "expenseSnTypeValue": "入库",
                "departmentName": "采购部"
            },
            {
                "id": 571,
                "expenseSn": "160428WDBNF00001",
                "expenseId": "565",
                "materialId": "8",
                "materialName": "澳龙",
                "materialPrice": "0.00",
                "materialCount": "1.00",
                "materialRealCount": "1.00",
                "materialUnitName": "斤",
                "supplierId": "0",
                "shopId": "1",
                "departmentId": "1",
                "type": "9",
                "firstCategory": "2",
                "secondCategory": "0",
                "comment": "",
                "materialViceCount": "0.00",
                "materialViceRealCount": "0.00",
                "materialViceUnitName": "",
                "refundNum": "0.00",
                "userId": "1",
                "status": "1",
                "specification": "",
                "invoiceId": "71",
                "whetherSettlement": "0",
                "costPrice": "1.32",
                "subtotal": "0.00",
                "customTime": "1461848472",
                "updatedAt": "1462353252",
                "createdAt": "1461846685",
                "deletedAt": null,
                "firstCategoryName": "海鲜类",
                "secondCategoryName": "",
                "supplierName": "自采",
                "sn": 2,
                "realNumber": "1.00",
                "pCount": 0,
                "expenseSnTypeValue": "入库",
                "departmentName": "会计部"
            },
            {
                "id": 572,
                "expenseSn": "160428WDBNF00001",
                "expenseId": "565",
                "materialId": "9",
                "materialName": "河豚",
                "materialPrice": "0.00",
                "materialCount": "5.00",
                "materialRealCount": "5.00",
                "materialUnitName": "斤",
                "supplierId": "0",
                "shopId": "1",
                "departmentId": "2",
                "type": "9",
                "firstCategory": "2",
                "secondCategory": "0",
                "comment": "",
                "materialViceCount": "0.00",
                "materialViceRealCount": "0.00",
                "materialViceUnitName": "",
                "refundNum": "0.00",
                "userId": "1",
                "status": "1",
                "specification": "",
                "invoiceId": "71",
                "whetherSettlement": "0",
                "costPrice": "0.00",
                "subtotal": "0.00",
                "customTime": "1461848472",
                "updatedAt": "1461846685",
                "createdAt": "1461846685",
                "deletedAt": null,
                "firstCategoryName": "海鲜类",
                "secondCategoryName": "",
                "supplierName": "自采",
                "sn": 3,
                "realNumber": "5.00",
                "pCount": 0,
                "expenseSnTypeValue": "入库",
                "departmentName": "出纳部"
            },
            {
                "id": 524,
                "expenseSn": "160428lcOYw00001",
                "expenseId": "540",
                "materialId": "17",
                "materialName": "海蟹",
                "materialPrice": "0.00",
                "materialCount": "1.00",
                "materialRealCount": "1.00",
                "materialUnitName": "斤",
                "supplierId": "0",
                "shopId": "1",
                "departmentId": "1",
                "type": "9",
                "firstCategory": "2",
                "secondCategory": "0",
                "comment": "",
                "materialViceCount": "0.00",
                "materialViceRealCount": "0.00",
                "materialViceUnitName": "",
                "refundNum": "0.00",
                "userId": "1",
                "status": "1",
                "specification": "",
                "invoiceId": "0",
                "whetherSettlement": "0",
                "costPrice": "0.00",
                "subtotal": "0.00",
                "customTime": "1461844094",
                "updatedAt": "1461844094",
                "createdAt": "1461844094",
                "deletedAt": null,
                "firstCategoryName": "海鲜类",
                "secondCategoryName": "",
                "supplierName": "自采",
                "sn": 4,
                "realNumber": "1.00",
                "pCount": 0,
                "expenseSnTypeValue": "入库",
                "departmentName": "会计部"
            },
            {
                "id": 30,
                "expenseSn": "160426kqbV900001",
                "expenseId": "21",
                "materialId": "65",
                "materialName": "员工-大米",
                "materialPrice": "50.00",
                "materialCount": "1.00",
                "materialRealCount": "1.00",
                "materialUnitName": "袋",
                "supplierId": "0",
                "shopId": "1",
                "departmentId": "1",
                "type": "9",
                "firstCategory": "3",
                "secondCategory": "0",
                "comment": "",
                "materialViceCount": "0.00",
                "materialViceRealCount": "0.00",
                "materialViceUnitName": "",
                "refundNum": "0.00",
                "userId": "6",
                "status": "1",
                "specification": "",
                "invoiceId": "84",
                "whetherSettlement": "1",
                "costPrice": "0.00",
                "subtotal": "0.00",
                "customTime": "1461675841",
                "updatedAt": "1461813869",
                "createdAt": "1461675518",
                "deletedAt": null,
                "firstCategoryName": "员工食堂",
                "secondCategoryName": "",
                "supplierName": "自采",
                "sn": 5,
                "realNumber": "1.00",
                "pCount": 50,
                "expenseSnTypeValue": "入库",
                "departmentName": "会计部"
            },
            {
                "id": 29,
                "expenseSn": "160426kqbV900001",
                "expenseId": "21",
                "materialId": "91",
                "materialName": "员工-大可乐",
                "materialPrice": "7.00",
                "materialCount": "1.00",
                "materialRealCount": "1.00",
                "materialUnitName": "瓶",
                "supplierId": "0",
                "shopId": "1",
                "departmentId": "1",
                "type": "9",
                "firstCategory": "3",
                "secondCategory": "0",
                "comment": "",
                "materialViceCount": "0.00",
                "materialViceRealCount": "0.00",
                "materialViceUnitName": "",
                "refundNum": "0.00",
                "userId": "6",
                "status": "1",
                "specification": "",
                "invoiceId": "84",
                "whetherSettlement": "1",
                "costPrice": "0.00",
                "subtotal": "0.00",
                "customTime": "1461675841",
                "updatedAt": "1461813591",
                "createdAt": "1461675518",
                "deletedAt": null,
                "firstCategoryName": "员工食堂",
                "secondCategoryName": "",
                "supplierName": "自采",
                "sn": 6,
                "realNumber": "1.00",
                "pCount": 7,
                "expenseSnTypeValue": "入库",
                "departmentName": "会计部"
            },
            {
                "id": 54,
                "expenseSn": "160426gguJ800001",
                "expenseId": "33",
                "materialId": "340",
                "materialName": "海白虾",
                "materialPrice": "50.00",
                "materialCount": "6.00",
                "materialRealCount": "6.00",
                "materialUnitName": "斤",
                "supplierId": "0",
                "shopId": "1",
                "departmentId": "4",
                "type": "9",
                "firstCategory": "1",
                "secondCategory": "0",
                "comment": "",
                "materialViceCount": "0.00",
                "materialViceRealCount": "0.00",
                "materialViceUnitName": "",
                "refundNum": "0.00",
                "userId": "13",
                "status": "1",
                "specification": "",
                "invoiceId": "0",
                "whetherSettlement": "1",
                "costPrice": "0.00",
                "subtotal": "0.00",
                "customTime": "1461727997",
                "updatedAt": "1461842423",
                "createdAt": "1461676606",
                "deletedAt": null,
                "firstCategoryName": "鲜肉类",
                "secondCategoryName": "",
                "supplierName": "自采",
                "sn": 7,
                "realNumber": "6.00",
                "pCount": 300,
                "expenseSnTypeValue": "入库",
                "departmentName": "采购部"
            },
            {
                "id": 606,
                "expenseSn": "160428WDBNF00001",
                "expenseId": "565",
                "materialId": "370",
                "materialName": "净鱼头",
                "materialPrice": "0.00",
                "materialCount": "4.00",
                "materialRealCount": "4.00",
                "materialUnitName": "斤",
                "supplierId": "0",
                "shopId": "1",
                "departmentId": "2",
                "type": "9",
                "firstCategory": "1",
                "secondCategory": "0",
                "comment": "",
                "materialViceCount": "99.00",
                "materialViceRealCount": "99.00",
                "materialViceUnitName": "",
                "refundNum": "0.00",
                "userId": "1",
                "status": "1",
                "specification": "",
                "invoiceId": "71",
                "whetherSettlement": "0",
                "costPrice": "0.00",
                "subtotal": "0.00",
                "customTime": "1461848472",
                "updatedAt": "1461848472",
                "createdAt": "1461848472",
                "deletedAt": null,
                "firstCategoryName": "鲜肉类",
                "secondCategoryName": "",
                "supplierName": "自采",
                "sn": 8,
                "realNumber": "4.00",
                "pCount": 0,
                "expenseSnTypeValue": "入库",
                "departmentName": "出纳部"
            },
            {
                "id": 42,
                "expenseSn": "160426LyYmK00001",
                "expenseId": "25",
                "materialId": "401",
                "materialName": "百叶",
                "materialPrice": "100.00",
                "materialCount": "88.00",
                "materialRealCount": "88.00",
                "materialUnitName": "斤",
                "supplierId": "0",
                "shopId": "1",
                "departmentId": "4",
                "type": "9",
                "firstCategory": "1",
                "secondCategory": "0",
                "comment": "",
                "materialViceCount": "0.00",
                "materialViceRealCount": "0.00",
                "materialViceUnitName": "",
                "refundNum": "0.00",
                "userId": "13",
                "status": "1",
                "specification": "",
                "invoiceId": "0",
                "whetherSettlement": "1",
                "costPrice": "0.07",
                "subtotal": "0.00",
                "customTime": "1461676149",
                "updatedAt": "1462353252",
                "createdAt": "1461676149",
                "deletedAt": null,
                "firstCategoryName": "鲜肉类",
                "secondCategoryName": "",
                "supplierName": "自采",
                "sn": 9,
                "realNumber": "88.00",
                "pCount": 8800,
                "expenseSnTypeValue": "入库",
                "departmentName": "采购部"
            },
            {
                "id": 44,
                "expenseSn": "160426LyYmK00001",
                "expenseId": "25",
                "materialId": "437",
                "materialName": "白胡椒粒",
                "materialPrice": "5.00",
                "materialCount": "9.00",
                "materialRealCount": "9.00",
                "materialUnitName": "斤",
                "supplierId": "0",
                "shopId": "1",
                "departmentId": "4",
                "type": "9",
                "firstCategory": "7",
                "secondCategory": "0",
                "comment": "",
                "materialViceCount": "0.00",
                "materialViceRealCount": "0.00",
                "materialViceUnitName": "",
                "refundNum": "0.00",
                "userId": "13",
                "status": "1",
                "specification": "",
                "invoiceId": "0",
                "whetherSettlement": "1",
                "costPrice": "0.00",
                "subtotal": "0.00",
                "customTime": "1461676149",
                "updatedAt": "1461816277",
                "createdAt": "1461676149",
                "deletedAt": null,
                "firstCategoryName": "干货类",
                "secondCategoryName": "",
                "supplierName": "自采",
                "sn": 10,
                "realNumber": "9.00",
                "pCount": 45,
                "expenseSnTypeValue": "入库",
                "departmentName": "采购部"
            },
            {
                "id": 398,
                "expenseSn": "160428k5P3V00001",
                "expenseId": "410",
                "materialId": "526",
                "materialName": "八喜猪油",
                "materialPrice": "0.00",
                "materialCount": "2.00",
                "materialRealCount": "2.00",
                "materialUnitName": "桶",
                "supplierId": "0",
                "shopId": "1",
                "departmentId": "1",
                "type": "9",
                "firstCategory": "8",
                "secondCategory": "0",
                "comment": "",
                "materialViceCount": "0.00",
                "materialViceRealCount": "0.00",
                "materialViceUnitName": "",
                "refundNum": "0.00",
                "userId": "12",
                "status": "1",
                "specification": "",
                "invoiceId": "0",
                "whetherSettlement": "0",
                "costPrice": "0.00",
                "subtotal": "0.00",
                "customTime": "1461835512",
                "updatedAt": "1461830781",
                "createdAt": "1461830781",
                "deletedAt": null,
                "firstCategoryName": "调料",
                "secondCategoryName": "",
                "supplierName": "自采",
                "sn": 11,
                "realNumber": "2.00",
                "pCount": 0,
                "expenseSnTypeValue": "入库",
                "departmentName": "会计部"
            },
            {
                "id": 78,
                "expenseSn": "1604261WDCr00001",
                "expenseId": "45",
                "materialId": "532",
                "materialName": "泡子姜",
                "materialPrice": "0.00",
                "materialCount": "3.00",
                "materialRealCount": "3.00",
                "materialUnitName": "桶",
                "supplierId": "0",
                "shopId": "1",
                "departmentId": "3",
                "type": "9",
                "firstCategory": "8",
                "secondCategory": "0",
                "comment": "",
                "materialViceCount": "0.00",
                "materialViceRealCount": "0.00",
                "materialViceUnitName": "",
                "refundNum": "0.00",
                "userId": "6",
                "status": "1",
                "specification": "",
                "invoiceId": "0",
                "whetherSettlement": "1",
                "costPrice": "0.00",
                "subtotal": "0.00",
                "customTime": "1461727176",
                "updatedAt": "1461900172",
                "createdAt": "1461676920",
                "deletedAt": null,
                "firstCategoryName": "调料",
                "secondCategoryName": "",
                "supplierName": "自采",
                "sn": 12,
                "realNumber": "3.00",
                "pCount": 0,
                "expenseSnTypeValue": "入库",
                "departmentName": "仓库部"
            },
            {
                "id": 814,
                "expenseSn": "160429om2m400001",
                "expenseId": "716",
                "materialId": "727",
                "materialName": "阿华田",
                "materialPrice": "22.00",
                "materialCount": "10.00",
                "materialRealCount": "11.00",
                "materialUnitName": "瓶",
                "supplierId": "0",
                "shopId": "1",
                "departmentId": "3",
                "type": "9",
                "firstCategory": "9",
                "secondCategory": "0",
                "comment": "",
                "materialViceCount": "0.00",
                "materialViceRealCount": "0.00",
                "materialViceUnitName": "",
                "refundNum": "0.00",
                "userId": "6",
                "status": "1",
                "specification": "",
                "invoiceId": "0",
                "whetherSettlement": "0",
                "costPrice": "0.00",
                "subtotal": "0.00",
                "customTime": "1461984053",
                "updatedAt": "1461929631",
                "createdAt": "1461929631",
                "deletedAt": null,
                "firstCategoryName": "饮品原料",
                "secondCategoryName": "",
                "supplierName": "自采",
                "sn": 13,
                "realNumber": "11.00",
                "pCount": 242,
                "expenseSnTypeValue": "入库",
                "departmentName": "仓库部"
            },
            {
                "id": 43,
                "expenseSn": "160426LyYmK00001",
                "expenseId": "25",
                "materialId": "805",
                "materialName": "15温情月饼",
                "materialPrice": "10.00",
                "materialCount": "23.00",
                "materialRealCount": "23.00",
                "materialUnitName": "盒",
                "supplierId": "0",
                "shopId": "1",
                "departmentId": "4",
                "type": "9",
                "firstCategory": "12",
                "secondCategory": "0",
                "comment": "",
                "materialViceCount": "0.00",
                "materialViceRealCount": "0.00",
                "materialViceUnitName": "",
                "refundNum": "0.00",
                "userId": "13",
                "status": "1",
                "specification": "",
                "invoiceId": "0",
                "whetherSettlement": "1",
                "costPrice": "0.00",
                "subtotal": "0.00",
                "customTime": "1461676149",
                "updatedAt": "1461815961",
                "createdAt": "1461676149",
                "deletedAt": null,
                "firstCategoryName": "商品类",
                "secondCategoryName": "",
                "supplierName": "自采",
                "sn": 14,
                "realNumber": "23.00",
                "pCount": 230,
                "expenseSnTypeValue": "入库",
                "departmentName": "采购部"
            },
            {
                "id": 77,
                "expenseSn": "1604261WDCr00001",
                "expenseId": "45",
                "materialId": "887",
                "materialName": "排风扇",
                "materialPrice": "0.00",
                "materialCount": "2.00",
                "materialRealCount": "2.00",
                "materialUnitName": "个",
                "supplierId": "0",
                "shopId": "1",
                "departmentId": "3",
                "type": "9",
                "firstCategory": "19",
                "secondCategory": "0",
                "comment": "",
                "materialViceCount": "0.00",
                "materialViceRealCount": "0.00",
                "materialViceUnitName": "",
                "refundNum": "-2.00",
                "userId": "6",
                "status": "1",
                "specification": "",
                "invoiceId": "0",
                "whetherSettlement": "0",
                "costPrice": "0.00",
                "subtotal": "0.00",
                "customTime": "1461727176",
                "updatedAt": "1461676920",
                "createdAt": "1461676920",
                "deletedAt": null,
                "firstCategoryName": "维修用品",
                "secondCategoryName": "",
                "supplierName": "自采",
                "sn": 15,
                "realNumber": "2.00",
                "pCount": 0,
                "expenseSnTypeValue": "入库",
                "departmentName": "仓库部"
            }
        ],
        "count": "99",
        "currentPage": 1,
        "totalPages": 7
    }
}